<?xml version="1.0" encoding="UTF-8" standalone="no"?>
<!-- Created with Inkscape (http://www.inkscape.org/) -->

<svg
   width="60"
   height="30"
   viewBox="0 0 15.875 7.9375"
   version="1.1"
   id="svg1"
   xml:space="preserve"
   inkscape:version="1.3.2 (091e20e, 2023-11-25, custom)"
   sodipodi:docname="cover_status.svg"
   inkscape:export-filename="covered_status_top_censored.png"
   inkscape:export-xdpi="96"
   inkscape:export-ydpi="96"
   xmlns:inkscape="http://www.inkscape.org/namespaces/inkscape"
   xmlns:sodipodi="http://sodipodi.sourceforge.net/DTD/sodipodi-0.dtd"
   xmlns="http://www.w3.org/2000/svg"
   xmlns:svg="http://www.w3.org/2000/svg"><sodipodi:namedview
     id="namedview1"
     pagecolor="#ffffff"
     bordercolor="#666666"
     borderopacity="1.0"
     inkscape:showpageshadow="2"
     inkscape:pageopacity="0.0"
     inkscape:pagecheckerboard="0"
     inkscape:deskcolor="#d1d1d1"
     inkscape:document-units="mm"
     showguides="true"
     inkscape:zoom="5.946522"
     inkscape:cx="14.125904"
     inkscape:cy="-11.26709"
     inkscape:window-width="1366"
     inkscape:window-height="715"
     inkscape:window-x="-8"
     inkscape:window-y="-8"
     inkscape:window-maximized="1"
     inkscape:current-layer="layer1"><sodipodi:guide
       position="7.9375,3.96875"
       orientation="-1,0"
       id="guide1"
       inkscape:locked="false"
       inkscape:label=""
       inkscape:color="rgb(0,134,229)" /><sodipodi:guide
       position="7.9375,3.96875"
       orientation="0,1"
       id="guide2"
       inkscape:locked="false"
       inkscape:label=""
       inkscape:color="rgb(0,134,229)" /></sodipodi:namedview><defs
     id="defs1" /><g
     inkscape:label="Top"
     inkscape:groupmode="layer"
     id="layer1"
     style="display:inline;stroke-width:0.780795"
     transform="matrix(1.3479159,0,0,1.2169251,-2.7886943,-1.9126598)"><path
       style="display:inline;fill:#ffffff;fill-opacity:1;stroke:#000000;stroke-width:0.206585;stroke-linejoin:bevel;stroke-dasharray:none;stroke-opacity:1"
       d="m 5.6002118,8.8407837 c 0,0 0.4090043,-1.8877119 -0.8494702,-3.9641949 C 3.4922669,2.800106 2.5169491,-0.88093218 2.5169491,-0.88093218 L 4.7192797,-1.2584746 c 0,0 1.0697033,2.8630301 1.9820973,2.7686441 0.9123941,-0.094386 0.031462,-2.13940679 0.031462,-2.13940679 h 2.3093997 c 0,0 -0.8809321,2.04502119 0.031462,2.13940679 0.912394,0.094386 1.9820973,-2.7686441 1.9820973,-2.7686441 l 2.202331,0.37754242 c 0,0 -0.975318,3.68103818 -2.233793,5.75752098 -1.2584744,2.076483 -0.84947,3.9641949 -0.84947,3.9641949 z"
       id="path28"
       sodipodi:nodetypes="csccsccsccscc" /><path
       style="display:inline;opacity:1;fill:#ffffff;fill-opacity:1;stroke:#000000;stroke-width:0.206585;stroke-linejoin:bevel;stroke-dasharray:none;stroke-opacity:1"
       d="m 5.4727368,4.093429 c 0,0 -1.0233572,1.2013327 -0.8453821,2.3359245 C 4.8053299,7.563945 5.8286872,8.0088832 6.8520444,7.4527107 7.8754017,6.8965383 7.7864141,5.4504899 7.7864141,5.4504899"
       id="path29" /><path
       style="display:inline;opacity:1;fill:#ffffff;fill-opacity:1;stroke:#000000;stroke-width:0.206585;stroke-linejoin:bevel;stroke-dasharray:none;stroke-opacity:1"
       d="m 5.4727368,4.093429 c 0,0 -1.0233572,1.2013327 -0.8453821,2.3359245 C 4.8053299,7.563945 5.8286872,8.0088832 6.8520444,7.4527107 7.8754017,6.8965383 7.7864141,5.4504899 7.7864141,5.4504899"
       id="path31"
       transform="matrix(-1,0,0,1,15.956489,0)" /><g
       inkscape:groupmode="layer"
       id="g31"
       inkscape:label="censored"
       transform="matrix(-1,0,0,1,15.956489,0)"
       style="display:none;stroke-width:0.780795"><ellipse
         style="display:inline;fill:#ffffff;fill-opacity:1;stroke:#000000;stroke-width:0.206585;stroke-linejoin:bevel;stroke-dasharray:none;stroke-opacity:1"
         id="path30"
         cx="5.7285762"
         cy="6.1957607"
         rx="0.56729591"
         ry="0.61178964"
         transform="matrix(-1,0,0,1,15.956489,0)" /><ellipse
         style="fill:#ffffff;fill-opacity:1;stroke:#000000;stroke-width:0.206585;stroke-linejoin:bevel;stroke-dasharray:none;stroke-opacity:1"
         id="ellipse31"
         cx="5.7285762"
         cy="6.1957607"
         rx="0.56729591"
         ry="0.61178964" /></g><g
       inkscape:groupmode="layer"
       id="layer7"
       inkscape:label="Bra"
       style="display:none;stroke-width:0.780795"><path
         style="display:inline;fill:#ffffff;fill-opacity:1;stroke:#000000;stroke-width:0.206585;stroke-linejoin:bevel;stroke-dasharray:none;stroke-opacity:1"
         d="m 6.5490732,7.5351165 c -1.0854343,0.4876589 -1.6832103,0 -2.0450213,-1.0067798 C 4.1422399,5.5215571 5.0860969,4.2630824 5.3692529,3.6338453 5.6524099,3.0046079 6.226589,1.4079183 6.226589,1.4079183 L 6.6670552,1.518035 c 0,0 -0.555478,3.3605185 1.326761,3.3605185 1.8822389,0 1.2166444,-3.352653 1.2166444,-3.352653 L 9.5880031,1.3371291 c 0,0 0.6213719,1.6674788 0.9045289,2.2967162 0.283156,0.6292371 1.227013,1.8877118 0.865201,2.8944914 C 10.995922,7.5351165 10.398146,8.0227754 9.3127117,7.5351165 8.2272774,7.0474575 8.6205509,7.1103812 7.9308925,7.1103812 c -0.6896585,0 -0.296385,-0.062924 -1.3818193,0.4247353 z"
         id="path37"
         sodipodi:nodetypes="ssscczccssszs" /></g></g><g
     inkscape:groupmode="layer"
     id="layer5"
     inkscape:label="Bottom"
     style="display:none;opacity:1;stroke-width:0.74368"
     transform="matrix(1.4172429,0,0,1.2758024,-3.3223689,-1.5357638)"><path
       style="fill:#ffffff;fill-opacity:1;stroke:#000000;stroke-width:0.196765;stroke-linejoin:bevel;stroke-dasharray:none;stroke-opacity:1"
       d="m 7.274735,6.318119 c 0,0 0.1061868,0.5435442 0.2619149,1.2999385 C 7.692379,8.374452 7.4202201,10.278067 7.4202201,10.278067 H 4.2834074 c 0,0 -1.0131135,-2.0912087 -0.6571632,-4.7830835 0.3559505,-2.6918745 2.2914305,-4.2046634 2.2914305,-4.5828607 0,-0.37819726 -0.4449379,-1.11234488 -0.4449379,-1.11234488 l 4.9298162,0.007865 c 0,0 -0.4449376,0.73414762 -0.4449376,1.11234488 0,0.3781973 1.9354796,1.8909862 2.2914296,4.5828607 0.355951,2.6918748 -0.675418,4.7830835 -0.675418,4.7830835 H 8.4368143 c 0,0 -0.3192509,-1.8687399 -0.1635218,-2.6251344 0.155728,-0.7563943 0.3272621,-1.3348136 0.3272621,-1.3348136 0,0 -0.3170182,0.2508748 -0.6629098,0.2469423 C 7.5917532,6.5689938 7.274735,6.318119 7.274735,6.318119 Z"
       id="path32"
       sodipodi:nodetypes="csccssccssccsczc" /><path
       style="fill:#ffffff;fill-opacity:1;stroke:#000000;stroke-width:0.196765;stroke-linejoin:bevel;stroke-dasharray:none;stroke-opacity:1"
       d="m 7.8865253,2.0689615 c 0,0 0.2558391,0.100111 0.1334812,0.4783083 C 7.8976486,2.9254669 7.6974265,2.4805291 7.7307968,2.380418"
       id="path34" /><g
       inkscape:groupmode="layer"
       id="layer8"
       inkscape:label="Censored"
       style="display:none"><path
         style="display:inline;opacity:1;fill:#ffffff;fill-opacity:1;stroke:#000000;stroke-width:0.196765;stroke-linejoin:bevel;stroke-dasharray:none;stroke-opacity:1"
         d="m 8.6005546,6.2396774 c 0,0 -0.3130939,0.4935581 -0.4354518,0.4879963 -0.1223579,-0.00556 -0.227458,-0.222085 -0.227458,-0.222085 0,0 -0.097252,0.208655 -0.2196094,0.214215 C 7.5956775,6.7253655 7.274735,6.2318074 7.274735,6.2318074"
         id="path38"
         sodipodi:nodetypes="cscsc" /><path
         style="display:inline;opacity:1;fill:#ffffff;fill-opacity:1;stroke:#000000;stroke-width:0.196765;stroke-linejoin:bevel;stroke-dasharray:none;stroke-opacity:1"
         d="M 7.9421423,6.5183411 V 5.8398105"
         id="path33" /></g><g
       inkscape:groupmode="layer"
       id="layer6"
       inkscape:label="Panties"
       style="display:inline;opacity:1;stroke-width:0.74368"><path
         style="fill:#ffffff;fill-opacity:1;stroke:#000000;stroke-width:0.196765;stroke-linejoin:bevel;stroke-dasharray:none;stroke-opacity:1"
         d="M 8.8431656,5.8158319 C 9.5871765,4.3793865 11.82406,3.8562165 11.82406,3.8562165 c 0,0 -0.11119,-0.4079475 -0.244669,-0.7194039 C 11.44591,2.825356 11.101202,2.4916525 11.101202,2.4916525 c 0,0 -1.5572831,1.4682953 -3.1711227,1.4682953 -1.6138396,0 -3.1711227,-1.4682953 -3.1711227,-1.4682953 0,0 -0.3676965,0.3337035 -0.5011775,0.6451601 -0.133481,0.3114564 -0.2067717,0.7476758 -0.2067717,0.7476758 0,0 2.1886757,0.4825678 2.9437862,1.9313435 0.2436301,0.4674354 0.5301868,0.8135726 0.950983,0.8135726 0.4207962,0 0.6549005,-0.3454053 0.897389,-0.8135726 z"
         id="path35"
         sodipodi:nodetypes="scsczcscszs" /></g></g><g
     inkscape:groupmode="layer"
     id="layer2"
     inkscape:label="Eye"
     style="display:none"><path
       style="fill:#ffffff;fill-opacity:1;stroke:#000000;stroke-width:0.264583;stroke-linejoin:bevel;stroke-dasharray:none;stroke-opacity:1"
       d="m 3.3152731,0.53291593 c 2.111072,0 3.0727954,1.97722597 3.0727954,1.97722597 0,0 -0.9617234,1.9772261 -3.0727954,1.9772261 -2.1110721,0 -3.07279548,-1.9772261 -3.07279548,-1.9772261 0,0 0.96172338,-1.97722597 3.07279548,-1.97722597 z"
       id="path5"
       sodipodi:nodetypes="zczcz" /><ellipse
       style="fill:#ffffff;fill-opacity:1;stroke:#000000;stroke-width:0.264583;stroke-linejoin:bevel;stroke-dasharray:none;stroke-opacity:1"
       id="path8"
       cx="3.7152317"
       cy="2.5027759"
       rx="1.3570607"
       ry="1.6129" /><ellipse
       style="fill:#ffffff;fill-opacity:1;stroke:#000000;stroke-width:0.264583;stroke-linejoin:bevel;stroke-dasharray:none;stroke-opacity:1"
       id="path9"
       cx="4.0711823"
       cy="3.0478249"
       rx="0.48943174"
       ry="0.60066622" /><path
       style="fill:#ffffff;fill-opacity:1;stroke:#000000;stroke-width:0.264583;stroke-linejoin:bevel;stroke-dasharray:none;stroke-opacity:1"
       d="M 0.17797518,1.1790856 C 0.39269238,1.2791033 0.55076481,1.557591 0.65628347,1.7686284"
       id="path10" /><path
       style="fill:#ffffff;fill-opacity:1;stroke:#000000;stroke-width:0.264583;stroke-linejoin:bevel;stroke-dasharray:none;stroke-opacity:1"
       d="M 0.95661659,0.77864141 C 1.1473813,0.83776689 1.2304779,1.0705248 1.3125669,1.2347028"
       id="path11" /><path
       style="fill:#ffffff;fill-opacity:1;stroke:#000000;stroke-width:0.264583;stroke-linejoin:bevel;stroke-dasharray:none;stroke-opacity:1"
       d="m 1.9243566,0.32258002 c 0.075037,0.10026126 0.2002221,0.28920382 0.2002221,0.42269105"
       id="path12" /><path
       style="fill:#ffffff;fill-opacity:1;stroke:#000000;stroke-width:0.264583;stroke-linejoin:bevel;stroke-dasharray:none;stroke-opacity:1"
       d="m 2.7697387,0.14460483 c 0.084845,0.14092905 0.1890985,0.30934158 0.1890985,0.47830831"
       id="path13" /><path
       style="fill:#ffffff;fill-opacity:1;stroke:#000000;stroke-width:0.264583;stroke-linejoin:bevel;stroke-dasharray:none;stroke-opacity:1"
       d="m 3.8820836,0.16685173 c -0.018192,0.14114523 0.018724,0.31850115 -0.044494,0.44493795"
       id="path14" /><path
       style="fill:#ffffff;fill-opacity:1;stroke:#000000;stroke-width:0.264583;stroke-linejoin:bevel;stroke-dasharray:none;stroke-opacity:1"
       d="M 4.9276878,0.3448269 C 4.9219304,0.50702948 4.6940954,0.62647927 4.6940954,0.78976486"
       id="path15" /><path
       style="fill:#ffffff;fill-opacity:1;stroke:#000000;stroke-width:0.264583;stroke-linejoin:bevel;stroke-dasharray:none;stroke-opacity:1"
       d="M 5.8175638,1.0233573 C 5.7792953,1.1574968 5.4949835,1.1717995 5.4949835,1.3014435"
       id="path16" /><path
       style="fill:#ffffff;fill-opacity:1;stroke:#000000;stroke-width:0.264583;stroke-linejoin:bevel;stroke-dasharray:none;stroke-opacity:1"
       d="M 6.295872,1.5795297 C 6.2107823,1.6613282 5.8954278,1.6977292 5.8954278,1.8353691"
       id="path17" /><path
       style="fill:#ffffff;fill-opacity:1;stroke:#000000;stroke-width:0.264583;stroke-linejoin:bevel;stroke-dasharray:none;stroke-opacity:1"
       d="M 0.53392554,3.147936 C 0.5579759,3.3287477 0.12235794,3.4983134 0.12235794,3.6151208"
       id="path18" /><path
       style="fill:#ffffff;fill-opacity:1;stroke:#000000;stroke-width:0.264583;stroke-linejoin:bevel;stroke-dasharray:none;stroke-opacity:1"
       d="M 1.0122338,3.5928739 C 0.9215702,3.7376412 0.86289445,3.9646822 0.74527107,4.0823057"
       id="path19" /><path
       style="fill:#ffffff;fill-opacity:1;stroke:#000000;stroke-width:0.264583;stroke-linejoin:bevel;stroke-dasharray:none;stroke-opacity:1"
       d="M 1.6462704,4.093429 C 1.5576085,4.2119539 1.4848082,4.3550025 1.3793076,4.4605029"
       id="path20" /><path
       style="fill:#ffffff;fill-opacity:1;stroke:#000000;stroke-width:0.264583;stroke-linejoin:bevel;stroke-dasharray:none;stroke-opacity:1"
       d="M 2.3136773,4.3270214 C 2.2882214,4.4532809 2.2690983,4.7608786 2.1357022,4.8275769"
       id="path21" /><path
       style="fill:#ffffff;fill-opacity:1;stroke:#000000;stroke-width:0.264583;stroke-linejoin:bevel;stroke-dasharray:none;stroke-opacity:1"
       d="m 3.0255781,4.4716263 c 0.00801,0.1648611 -0.016163,0.3265733 -0.066741,0.4783084"
       id="path22" /><path
       style="fill:#ffffff;fill-opacity:1;stroke:#000000;stroke-width:0.264583;stroke-linejoin:bevel;stroke-dasharray:none;stroke-opacity:1"
       d="m 3.8153429,4.4938732 c 0.026554,0.1499365 0.1684822,0.3526894 0.088988,0.5116788"
       id="path23" /><path
       style="fill:#ffffff;fill-opacity:1;stroke:#000000;stroke-width:0.264583;stroke-linejoin:bevel;stroke-dasharray:none;stroke-opacity:1"
       d="m 4.4271326,4.3047747 c 0.1220888,0.095021 0.1858349,0.246048 0.2335925,0.3893207"
       id="path24" /><path
       style="fill:#ffffff;fill-opacity:1;stroke:#000000;stroke-width:0.264583;stroke-linejoin:bevel;stroke-dasharray:none;stroke-opacity:1"
       d="M 5.1390332,3.9488242 C 5.2467986,4.0321372 5.350379,4.1161917 5.350379,4.2602808"
       id="path25" /><path
       style="fill:#ffffff;fill-opacity:1;stroke:#000000;stroke-width:0.264583;stroke-linejoin:bevel;stroke-dasharray:none;stroke-opacity:1"
       d="m 5.6618353,3.470516 c 0.1788504,-5.027e-4 0.4234077,0.1162561 0.5116788,0.2780863 0.018859,0.034575 0.015997,0.087611 0.03337,0.1223579"
       id="path26" /><path
       style="fill:#ffffff;fill-opacity:1;stroke:#000000;stroke-width:0.264583;stroke-linejoin:bevel;stroke-dasharray:none;stroke-opacity:1"
       d="m 6.1290202,2.8587263 c 0.1662073,0.024675 0.2763044,0.2224691 0.4449379,0.2224691"
       id="path27" /></g><g
     inkscape:groupmode="layer"
     id="layer3"
     inkscape:label="Hand"
     style="display:none"><path
       style="fill:#ffffff;fill-opacity:1;stroke:#000000;stroke-width:0.264583;stroke-linejoin:bevel;stroke-dasharray:none;stroke-opacity:1"
       d="m 14.091369,6.5251359 c 0,0 -0.378769,-1.0591454 -0.966786,-1.3822932 C 12.536567,4.8196949 12.140389,4.566529 11.616943,4.266441 11.093497,3.966353 10.638789,3.7270586 10.788691,3.3988513 c 0.149901,-0.3282073 0.49416,-0.1584676 0.845437,0.01546 0.351277,0.1739274 0.709572,0.3520425 0.709572,0.3520425 0,0 -0.334197,-0.9739147 -0.649605,-1.5283997 -0.315407,-0.554485 -0.495899,-1.063808 -0.171968,-1.1857863 0.323932,-0.12197828 0.555715,0.435859 0.863733,0.8843792 0.308017,0.4485202 0.67328,0.8172592 0.67328,0.8172592 0,0 -0.224274,-1.0089016 -0.379684,-1.5958158 -0.155414,-0.58691419 -0.181104,-0.93178138 0.133655,-0.9789335 0.31476,-0.0471521 0.45856,0.5483882 0.65482,1.1026995 0.19626,0.5543113 0.451294,1.0942344 0.451294,1.0942344 0,0 0.07597,-0.5875994 0.03904,-1.1001577 -0.03693,-0.51255835 -0.02807,-1.04354809 0.337982,-1.03869209 0.36602,0.004856 0.365069,0.70587075 0.372375,1.19984049 0.0073,0.4939697 0.189032,1.0115746 0.189032,1.0115746 0,0 0.123233,-0.5955572 0.16651,-0.9762166 0.04328,-0.3806594 0.03492,-0.57324936 0.337944,-0.58698252 0.303028,-0.0137332 0.327146,0.48194982 0.242604,1.30506802 -0.08454,0.8231183 0.192621,1.6227061 -0.07689,2.2488103 -0.269511,0.6261042 0.3179,1.3210012 0.3179,1.3210012 z"
       id="path7"
       sodipodi:nodetypes="czzzzczzzczzzczzzczzzzcc" /></g></svg>
